-------------------------------------------------------------------------------
Test set: hr.fer.oprpp1.custom.collections.ArrayIndexedCollectionTest
-------------------------------------------------------------------------------
Tests run: 16, Failures: 0, Errors: 0, Skipped: 0, Time elapsed: 0.006 sec
