<?xml version="1.0" encoding="UTF-8" ?>
<testsuite tests="5" failures="0" name="hr.fer.oprpp1.custom.scripting.lexer.SmartScriptLexerTest" time="0" errors="0" skipped="0">
  <properties>
    <property name="java.runtime.name" value="OpenJDK Runtime Environment"/>
    <property name="java.vm.version" value="15+36-1562"/>
    <property name="sun.boot.library.path" value="/usr/lib/jvm/jdk-15/lib"/>
    <property name="maven.multiModuleProjectDirectory" value="/home/home/OPRPP/hw02-0036514325"/>
    <property name="java.vm.vendor" value="Oracle Corporation"/>
    <property name="java.vendor.url" value="https://java.oracle.com/"/>
    <property name="guice.disable.misplaced.annotation.check" value="true"/>
    <property name="path.separator" value=":"/>
    <property name="java.vm.name" value="OpenJDK 64-Bit Server VM"/>
    <property name="user.country" value="US"/>
    <property name="sun.java.launcher" value="SUN_STANDARD"/>
    <property name="java.vm.specification.name" value="Java Virtual Machine Specification"/>
    <property name="user.dir" value="/home/home/OPRPP/hw02-0036514325"/>
    <property name="java.vm.compressedOopsMode" value="32-bit"/>
    <property name="java.runtime.version" value="15+36-1562"/>
    <property name="os.arch" value="amd64"/>
    <property name="java.io.tmpdir" value="/tmp"/>
    <property name="line.separator" value="
"/>
    <property name="java.vm.specification.vendor" value="Oracle Corporation"/>
    <property name="os.name" value="Linux"/>
    <property name="classworlds.conf" value="/usr/share/maven/bin/m2.conf"/>
    <property name="sun.jnu.encoding" value="UTF-8"/>
    <property name="java.library.path" value="/usr/java/packages/lib:/usr/lib64:/lib64:/lib:/usr/lib"/>
    <property name="maven.conf" value="/usr/share/maven/conf"/>
    <property name="jdk.debug" value="release"/>
    <property name="java.class.version" value="59.0"/>
    <property name="java.specification.name" value="Java Platform API Specification"/>
    <property name="sun.management.compiler" value="HotSpot 64-Bit Tiered Compilers"/>
    <property name="os.version" value="5.4.0-52-generic"/>
    <property name="library.jansi.path" value="/usr/share/maven/lib/jansi-native"/>
    <property name="user.home" value="/home/home"/>
    <property name="user.timezone" value="Europe/Zagreb"/>
    <property name="file.encoding" value="UTF-8"/>
    <property name="java.specification.version" value="15"/>
    <property name="user.name" value="home"/>
    <property name="java.class.path" value="/usr/share/maven/boot/plexus-classworlds-2.x.jar"/>
    <property name="java.vm.specification.version" value="15"/>
    <property name="sun.arch.data.model" value="64"/>
    <property name="sun.java.command" value="org.codehaus.plexus.classworlds.launcher.Launcher test"/>
    <property name="java.home" value="/usr/lib/jvm/jdk-15"/>
    <property name="user.language" value="en"/>
    <property name="java.specification.vendor" value="Oracle Corporation"/>
    <property name="java.vm.info" value="mixed mode, sharing"/>
    <property name="java.version" value="15"/>
    <property name="securerandom.source" value="file:/dev/./urandom"/>
    <property name="java.vendor" value="Oracle Corporation"/>
    <property name="maven.home" value="/usr/share/maven"/>
    <property name="file.separator" value="/"/>
    <property name="java.version.date" value="2020-09-15"/>
    <property name="java.vendor.url.bug" value="https://bugreport.java.com/bugreport/"/>
    <property name="sun.io.unicode.encoding" value="UnicodeLittle"/>
    <property name="sun.cpu.endian" value="little"/>
  </properties>
  <testcase classname="hr.fer.oprpp1.custom.scripting.lexer.SmartScriptLexerTest" name="hr.fer.oprpp1.custom.scripting.lexer.SmartScriptLexerTest.testNotNull" time="0"/>
  <testcase classname="hr.fer.oprpp1.custom.scripting.lexer.SmartScriptLexerTest" name="hr.fer.oprpp1.custom.scripting.lexer.SmartScriptLexerTest.testNullInput" time="0"/>
  <testcase classname="hr.fer.oprpp1.custom.scripting.lexer.SmartScriptLexerTest" name="hr.fer.oprpp1.custom.scripting.lexer.SmartScriptLexerTest.testRadAfterEOF" time="0"/>
  <testcase classname="hr.fer.oprpp1.custom.scripting.lexer.SmartScriptLexerTest" name="hr.fer.oprpp1.custom.scripting.lexer.SmartScriptLexerTest.testForTag" time="0"/>
  <testcase classname="hr.fer.oprpp1.custom.scripting.lexer.SmartScriptLexerTest" name="hr.fer.oprpp1.custom.scripting.lexer.SmartScriptLexerTest.testEchoTag" time="0"/>
</testsuite>